[
    {
        "dayRange":			"1-31",
        "Fajr":				"6:30 AM",
        "Dhuhr":			"1:15 PM",
        "Jumuah":		    "1:15 PM",
        "SecondJumuah":		"2:15 PM",
        "Asr":				"4:00 PM",
        "Ishaa":			"7:45 PM"
    }
]
